EESchema Schematic File Version 4
LIBS:p-driver-cache
EELAYER 30 0
EELAYER END
$Descr USLetter 11000 8500
encoding utf-8
Sheet 1 1
Title "p-driver non-inverting high-side 8-way switch"
Date "2019-09-13"
Rev "1"
Comp ""
Comment1 "Licensed under CERN OHL v.1.2"
Comment2 ""
Comment3 ""
Comment4 ""
$EndDescr
$Comp
L Device:Q_PMOS_GSD Q1
U 1 1 5D6A14BD
P 4700 1200
F 0 "Q1" H 4906 1246 50  0000 L CNN
F 1 "PMV33UPE" H 4906 1155 50  0000 L CNN
F 2 "Package_TO_SOT_SMD:SOT-23" H 4900 1300 50  0001 C CNN
F 3 "~" H 4700 1200 50  0001 C CNN
	1    4700 1200
	1    0    0    -1  
$EndComp
$Comp
L Regulator_Linear:AMS1117-5.0 U1
U 1 1 5D6A8018
P 1950 7300
F 0 "U1" H 1950 7542 50  0000 C CNN
F 1 "MCP1702T-5002E/CB" H 1950 7451 50  0000 C CNN
F 2 "Package_TO_SOT_SMD:SOT-23" H 1950 7500 50  0001 C CNN
F 3 "http://www.advanced-monolithic.com/pdf/ds1117.pdf" H 2050 7050 50  0001 C CNN
	1    1950 7300
	1    0    0    -1  
$EndComp
$Comp
L power:GND #PWR0101
U 1 1 5D6A937F
P 1950 7600
F 0 "#PWR0101" H 1950 7350 50  0001 C CNN
F 1 "GND" H 1955 7427 50  0000 C CNN
F 2 "" H 1950 7600 50  0001 C CNN
F 3 "" H 1950 7600 50  0001 C CNN
	1    1950 7600
	1    0    0    -1  
$EndComp
$Comp
L power:VCC #PWR0102
U 1 1 5D6A9CAC
P 2250 7300
F 0 "#PWR0102" H 2250 7150 50  0001 C CNN
F 1 "VCC" V 2265 7428 50  0000 L CNN
F 2 "" H 2250 7300 50  0001 C CNN
F 3 "" H 2250 7300 50  0001 C CNN
	1    2250 7300
	0    1    1    0   
$EndComp
$Comp
L Device:C_Small C1
U 1 1 5D6AC513
P 1650 7400
F 0 "C1" H 1450 7350 50  0000 L CNN
F 1 "1uF" H 1300 7250 50  0000 L CNN
F 2 "Capacitor_THT:C_Disc_D5.0mm_W2.5mm_P2.50mm" H 1650 7400 50  0001 C CNN
F 3 "~" H 1650 7400 50  0001 C CNN
	1    1650 7400
	1    0    0    -1  
$EndComp
$Comp
L Device:C_Small C2
U 1 1 5D6ACE53
P 2250 7400
F 0 "C2" H 2400 7350 50  0000 L CNN
F 1 "4.7uF" H 2400 7250 50  0000 L CNN
F 2 "Capacitor_THT:C_Disc_D5.0mm_W2.5mm_P2.50mm" H 2250 7400 50  0001 C CNN
F 3 "~" H 2250 7400 50  0001 C CNN
	1    2250 7400
	1    0    0    -1  
$EndComp
Connection ~ 2250 7300
Wire Wire Line
	4500 1400 4800 1400
$Comp
L power:VCC #PWR0103
U 1 1 5D6B19D7
P 4800 1400
F 0 "#PWR0103" H 4800 1250 50  0001 C CNN
F 1 "VCC" H 4800 1300 50  0000 C CNN
F 2 "" H 4800 1400 50  0001 C CNN
F 3 "" H 4800 1400 50  0001 C CNN
	1    4800 1400
	1    0    0    -1  
$EndComp
Connection ~ 4800 1400
Text GLabel 2750 1400 0    50   Input ~ 0
1_in
$Comp
L power:GND #PWR0109
U 1 1 5D6E3CE0
P 1650 7500
F 0 "#PWR0109" H 1650 7250 50  0001 C CNN
F 1 "GND" H 1655 7327 50  0000 C CNN
F 2 "" H 1650 7500 50  0001 C CNN
F 3 "" H 1650 7500 50  0001 C CNN
	1    1650 7500
	1    0    0    -1  
$EndComp
$Comp
L power:GND #PWR0110
U 1 1 5D6E4159
P 2250 7500
F 0 "#PWR0110" H 2250 7250 50  0001 C CNN
F 1 "GND" H 2255 7327 50  0000 C CNN
F 2 "" H 2250 7500 50  0001 C CNN
F 3 "" H 2250 7500 50  0001 C CNN
	1    2250 7500
	1    0    0    -1  
$EndComp
Wire Wire Line
	1400 7300 1650 7300
Connection ~ 1650 7300
$Comp
L Device:R_Small R4
U 1 1 5D726AF6
P 5550 1200
F 0 "R4" V 5354 1200 50  0000 C CNN
F 1 "1K" V 5445 1200 50  0000 C CNN
F 2 "Resistor_THT:R_Axial_DIN0309_L9.0mm_D3.2mm_P5.08mm_Vertical" H 5550 1200 50  0001 C CNN
F 3 "~" H 5550 1200 50  0001 C CNN
	1    5550 1200
	-1   0    0    1   
$EndComp
$Comp
L power:GND #PWR01
U 1 1 5D727879
P 5550 1300
F 0 "#PWR01" H 5550 1050 50  0001 C CNN
F 1 "GND" H 5555 1127 50  0000 C CNN
F 2 "" H 5550 1300 50  0001 C CNN
F 3 "" H 5550 1300 50  0001 C CNN
	1    5550 1300
	1    0    0    -1  
$EndComp
$Comp
L Device:Q_NMOS_GSD Q2
U 1 1 5D753E48
P 3650 1400
F 0 "Q2" H 3856 1446 50  0000 L CNN
F 1 "PMV20XNE" H 3856 1355 50  0000 L CNN
F 2 "Package_TO_SOT_SMD:SOT-23" H 3850 1500 50  0001 C CNN
F 3 "~" H 3650 1400 50  0001 C CNN
	1    3650 1400
	1    0    0    -1  
$EndComp
$Comp
L power:GND #PWR04
U 1 1 5D754A0F
P 3750 1600
F 0 "#PWR04" H 3750 1350 50  0001 C CNN
F 1 "GND" H 3755 1427 50  0000 C CNN
F 2 "" H 3750 1600 50  0001 C CNN
F 3 "" H 3750 1600 50  0001 C CNN
	1    3750 1600
	1    0    0    -1  
$EndComp
Wire Wire Line
	3450 1600 3750 1600
Connection ~ 3750 1600
$Comp
L Device:Polyfuse F1
U 1 1 5D719A93
P 1250 7300
F 0 "F1" V 1025 7300 50  0000 C CNN
F 1 "SF-0402FP125-2 " V 1116 7300 50  0000 C CNN
F 2 "Fuse:Fuse_Littelfuse_395Series" H 1300 7100 50  0001 L CNN
F 3 "~" H 1250 7300 50  0001 C CNN
	1    1250 7300
	0    1    1    0   
$EndComp
Wire Wire Line
	4800 1000 5550 1000
Wire Wire Line
	5550 1100 5550 1000
$Comp
L Device:R_Small R1
U 1 1 5D7DD3AE
P 3100 1400
F 0 "R1" V 2904 1400 50  0000 C CNN
F 1 "10R" V 2995 1400 50  0000 C CNN
F 2 "Resistor_THT:R_Axial_DIN0309_L9.0mm_D3.2mm_P5.08mm_Vertical" H 3100 1400 50  0001 C CNN
F 3 "~" H 3100 1400 50  0001 C CNN
	1    3100 1400
	0    1    1    0   
$EndComp
Wire Wire Line
	2750 1400 3000 1400
Wire Wire Line
	3200 1400 3450 1400
Connection ~ 3450 1400
Text GLabel 5750 1000 2    50   Input ~ 0
1_out
$Comp
L Device:R_Small R2
U 1 1 5D7571E8
P 3450 1500
F 0 "R2" H 3300 1400 50  0000 L CNN
F 1 "10K" H 3300 1500 50  0000 L CNN
F 2 "Resistor_THT:R_Axial_DIN0309_L9.0mm_D3.2mm_P5.08mm_Vertical" H 3450 1500 50  0001 C CNN
F 3 "~" H 3450 1500 50  0001 C CNN
	1    3450 1500
	1    0    0    -1  
$EndComp
$Comp
L Device:R_Small R3
U 1 1 5D69C55C
P 4500 1300
F 0 "R3" H 4350 1150 50  0000 L CNN
F 1 "10K" H 4350 1250 50  0000 L CNN
F 2 "Resistor_THT:R_Axial_DIN0309_L9.0mm_D3.2mm_P5.08mm_Vertical" H 4500 1300 50  0001 C CNN
F 3 "~" H 4500 1300 50  0001 C CNN
	1    4500 1300
	1    0    0    -1  
$EndComp
Wire Wire Line
	3750 1200 4500 1200
Connection ~ 4500 1200
Text Notes 800  5850 0    50   ~ 0
Populate one voltage regulator depending on current requirements and availability.\nOmit entirely if high-side supply voltage (VCC) already regulated and sufficient power\n
$Comp
L Device:Q_PMOS_GSD Q6
U 1 1 5D80D22D
P 4700 2300
F 0 "Q6" H 4906 2346 50  0000 L CNN
F 1 "PMV33UPE" H 4906 2255 50  0000 L CNN
F 2 "Package_TO_SOT_SMD:SOT-23" H 4900 2400 50  0001 C CNN
F 3 "~" H 4700 2300 50  0001 C CNN
	1    4700 2300
	1    0    0    -1  
$EndComp
Wire Wire Line
	4500 2500 4800 2500
$Comp
L power:VCC #PWR012
U 1 1 5D80D234
P 4800 2500
F 0 "#PWR012" H 4800 2350 50  0001 C CNN
F 1 "VCC" H 4800 2400 50  0000 C CNN
F 2 "" H 4800 2500 50  0001 C CNN
F 3 "" H 4800 2500 50  0001 C CNN
	1    4800 2500
	1    0    0    -1  
$EndComp
Connection ~ 4800 2500
Text GLabel 2750 2500 0    50   Input ~ 0
2_in
$Comp
L Device:R_Small R15
U 1 1 5D80D23C
P 5550 2300
F 0 "R15" V 5354 2300 50  0000 C CNN
F 1 "1K" V 5445 2300 50  0000 C CNN
F 2 "Resistor_THT:R_Axial_DIN0309_L9.0mm_D3.2mm_P5.08mm_Vertical" H 5550 2300 50  0001 C CNN
F 3 "~" H 5550 2300 50  0001 C CNN
	1    5550 2300
	-1   0    0    1   
$EndComp
$Comp
L power:GND #PWR015
U 1 1 5D80D242
P 5550 2400
F 0 "#PWR015" H 5550 2150 50  0001 C CNN
F 1 "GND" H 5555 2227 50  0000 C CNN
F 2 "" H 5550 2400 50  0001 C CNN
F 3 "" H 5550 2400 50  0001 C CNN
	1    5550 2400
	1    0    0    -1  
$EndComp
$Comp
L Device:Q_NMOS_GSD Q3
U 1 1 5D80D248
P 3650 2500
F 0 "Q3" H 3856 2546 50  0000 L CNN
F 1 "PMV20XNE" H 3856 2455 50  0000 L CNN
F 2 "Package_TO_SOT_SMD:SOT-23" H 3850 2600 50  0001 C CNN
F 3 "~" H 3650 2500 50  0001 C CNN
	1    3650 2500
	1    0    0    -1  
$EndComp
$Comp
L power:GND #PWR09
U 1 1 5D80D24E
P 3750 2700
F 0 "#PWR09" H 3750 2450 50  0001 C CNN
F 1 "GND" H 3755 2527 50  0000 C CNN
F 2 "" H 3750 2700 50  0001 C CNN
F 3 "" H 3750 2700 50  0001 C CNN
	1    3750 2700
	1    0    0    -1  
$EndComp
Wire Wire Line
	3450 2700 3750 2700
Connection ~ 3750 2700
Wire Wire Line
	4800 2100 5550 2100
Wire Wire Line
	5550 2200 5550 2100
$Comp
L Device:R_Small R6
U 1 1 5D80D258
P 3100 2500
F 0 "R6" V 2904 2500 50  0000 C CNN
F 1 "10R" V 2995 2500 50  0000 C CNN
F 2 "Resistor_THT:R_Axial_DIN0309_L9.0mm_D3.2mm_P5.08mm_Vertical" H 3100 2500 50  0001 C CNN
F 3 "~" H 3100 2500 50  0001 C CNN
	1    3100 2500
	0    1    1    0   
$EndComp
Wire Wire Line
	2750 2500 3000 2500
Wire Wire Line
	3200 2500 3450 2500
Connection ~ 3450 2500
Text GLabel 5750 2100 2    50   Input ~ 0
2_out
$Comp
L Device:R_Small R9
U 1 1 5D80D262
P 3450 2600
F 0 "R9" H 3300 2500 50  0000 L CNN
F 1 "10K" H 3300 2600 50  0000 L CNN
F 2 "Resistor_THT:R_Axial_DIN0309_L9.0mm_D3.2mm_P5.08mm_Vertical" H 3450 2600 50  0001 C CNN
F 3 "~" H 3450 2600 50  0001 C CNN
	1    3450 2600
	1    0    0    -1  
$EndComp
$Comp
L Device:R_Small R12
U 1 1 5D80D268
P 4500 2400
F 0 "R12" H 4350 2250 50  0000 L CNN
F 1 "10K" H 4350 2350 50  0000 L CNN
F 2 "Resistor_THT:R_Axial_DIN0309_L9.0mm_D3.2mm_P5.08mm_Vertical" H 4500 2400 50  0001 C CNN
F 3 "~" H 4500 2400 50  0001 C CNN
	1    4500 2400
	1    0    0    -1  
$EndComp
Wire Wire Line
	3750 2300 4500 2300
Connection ~ 4500 2300
$Comp
L Device:Q_PMOS_GSD Q7
U 1 1 5D80F209
P 4700 3450
F 0 "Q7" H 4906 3496 50  0000 L CNN
F 1 "PMV33UPE" H 4906 3405 50  0000 L CNN
F 2 "Package_TO_SOT_SMD:SOT-23" H 4900 3550 50  0001 C CNN
F 3 "~" H 4700 3450 50  0001 C CNN
	1    4700 3450
	1    0    0    -1  
$EndComp
Wire Wire Line
	4500 3650 4800 3650
$Comp
L power:VCC #PWR013
U 1 1 5D80F210
P 4800 3650
F 0 "#PWR013" H 4800 3500 50  0001 C CNN
F 1 "VCC" H 4800 3550 50  0000 C CNN
F 2 "" H 4800 3650 50  0001 C CNN
F 3 "" H 4800 3650 50  0001 C CNN
	1    4800 3650
	1    0    0    -1  
$EndComp
Connection ~ 4800 3650
Text GLabel 2750 3650 0    50   Input ~ 0
3_in
$Comp
L Device:R_Small R16
U 1 1 5D80F218
P 5550 3450
F 0 "R16" V 5354 3450 50  0000 C CNN
F 1 "1K" V 5445 3450 50  0000 C CNN
F 2 "Resistor_THT:R_Axial_DIN0309_L9.0mm_D3.2mm_P5.08mm_Vertical" H 5550 3450 50  0001 C CNN
F 3 "~" H 5550 3450 50  0001 C CNN
	1    5550 3450
	-1   0    0    1   
$EndComp
$Comp
L power:GND #PWR016
U 1 1 5D80F21E
P 5550 3550
F 0 "#PWR016" H 5550 3300 50  0001 C CNN
F 1 "GND" H 5555 3377 50  0000 C CNN
F 2 "" H 5550 3550 50  0001 C CNN
F 3 "" H 5550 3550 50  0001 C CNN
	1    5550 3550
	1    0    0    -1  
$EndComp
$Comp
L Device:Q_NMOS_GSD Q4
U 1 1 5D80F224
P 3650 3650
F 0 "Q4" H 3856 3696 50  0000 L CNN
F 1 "PMV20XNE" H 3856 3605 50  0000 L CNN
F 2 "Package_TO_SOT_SMD:SOT-23" H 3850 3750 50  0001 C CNN
F 3 "~" H 3650 3650 50  0001 C CNN
	1    3650 3650
	1    0    0    -1  
$EndComp
$Comp
L power:GND #PWR010
U 1 1 5D80F22A
P 3750 3850
F 0 "#PWR010" H 3750 3600 50  0001 C CNN
F 1 "GND" H 3755 3677 50  0000 C CNN
F 2 "" H 3750 3850 50  0001 C CNN
F 3 "" H 3750 3850 50  0001 C CNN
	1    3750 3850
	1    0    0    -1  
$EndComp
Wire Wire Line
	3450 3850 3750 3850
Connection ~ 3750 3850
Wire Wire Line
	4800 3250 5550 3250
Wire Wire Line
	5550 3350 5550 3250
$Comp
L Device:R_Small R7
U 1 1 5D80F234
P 3100 3650
F 0 "R7" V 2904 3650 50  0000 C CNN
F 1 "10R" V 2995 3650 50  0000 C CNN
F 2 "Resistor_THT:R_Axial_DIN0309_L9.0mm_D3.2mm_P5.08mm_Vertical" H 3100 3650 50  0001 C CNN
F 3 "~" H 3100 3650 50  0001 C CNN
	1    3100 3650
	0    1    1    0   
$EndComp
Wire Wire Line
	2750 3650 3000 3650
Wire Wire Line
	3200 3650 3450 3650
Connection ~ 3450 3650
Text GLabel 5750 3250 2    50   Input ~ 0
3_out
$Comp
L Device:R_Small R10
U 1 1 5D80F23E
P 3450 3750
F 0 "R10" H 3300 3650 50  0000 L CNN
F 1 "10K" H 3300 3750 50  0000 L CNN
F 2 "Resistor_THT:R_Axial_DIN0309_L9.0mm_D3.2mm_P5.08mm_Vertical" H 3450 3750 50  0001 C CNN
F 3 "~" H 3450 3750 50  0001 C CNN
	1    3450 3750
	1    0    0    -1  
$EndComp
$Comp
L Device:R_Small R13
U 1 1 5D80F244
P 4500 3550
F 0 "R13" H 4350 3400 50  0000 L CNN
F 1 "10K" H 4350 3500 50  0000 L CNN
F 2 "Resistor_THT:R_Axial_DIN0309_L9.0mm_D3.2mm_P5.08mm_Vertical" H 4500 3550 50  0001 C CNN
F 3 "~" H 4500 3550 50  0001 C CNN
	1    4500 3550
	1    0    0    -1  
$EndComp
Wire Wire Line
	3750 3450 4500 3450
Connection ~ 4500 3450
$Comp
L Device:Q_PMOS_GSD Q8
U 1 1 5D810FEF
P 4700 4600
F 0 "Q8" H 4906 4646 50  0000 L CNN
F 1 "PMV33UPE" H 4906 4555 50  0000 L CNN
F 2 "Package_TO_SOT_SMD:SOT-23" H 4900 4700 50  0001 C CNN
F 3 "~" H 4700 4600 50  0001 C CNN
	1    4700 4600
	1    0    0    -1  
$EndComp
Wire Wire Line
	4500 4800 4800 4800
$Comp
L power:VCC #PWR014
U 1 1 5D810FF6
P 4800 4800
F 0 "#PWR014" H 4800 4650 50  0001 C CNN
F 1 "VCC" H 4800 4700 50  0000 C CNN
F 2 "" H 4800 4800 50  0001 C CNN
F 3 "" H 4800 4800 50  0001 C CNN
	1    4800 4800
	1    0    0    -1  
$EndComp
Connection ~ 4800 4800
Text GLabel 2750 4800 0    50   Input ~ 0
4_in
$Comp
L Device:R_Small R17
U 1 1 5D810FFE
P 5550 4600
F 0 "R17" V 5354 4600 50  0000 C CNN
F 1 "1K" V 5445 4600 50  0000 C CNN
F 2 "Resistor_THT:R_Axial_DIN0309_L9.0mm_D3.2mm_P5.08mm_Vertical" H 5550 4600 50  0001 C CNN
F 3 "~" H 5550 4600 50  0001 C CNN
	1    5550 4600
	-1   0    0    1   
$EndComp
$Comp
L power:GND #PWR017
U 1 1 5D811004
P 5550 4700
F 0 "#PWR017" H 5550 4450 50  0001 C CNN
F 1 "GND" H 5555 4527 50  0000 C CNN
F 2 "" H 5550 4700 50  0001 C CNN
F 3 "" H 5550 4700 50  0001 C CNN
	1    5550 4700
	1    0    0    -1  
$EndComp
$Comp
L Device:Q_NMOS_GSD Q5
U 1 1 5D81100A
P 3650 4800
F 0 "Q5" H 3856 4846 50  0000 L CNN
F 1 "PMV20XNE" H 3856 4755 50  0000 L CNN
F 2 "Package_TO_SOT_SMD:SOT-23" H 3850 4900 50  0001 C CNN
F 3 "~" H 3650 4800 50  0001 C CNN
	1    3650 4800
	1    0    0    -1  
$EndComp
$Comp
L power:GND #PWR011
U 1 1 5D811010
P 3750 5000
F 0 "#PWR011" H 3750 4750 50  0001 C CNN
F 1 "GND" H 3755 4827 50  0000 C CNN
F 2 "" H 3750 5000 50  0001 C CNN
F 3 "" H 3750 5000 50  0001 C CNN
	1    3750 5000
	1    0    0    -1  
$EndComp
Wire Wire Line
	3450 5000 3750 5000
Connection ~ 3750 5000
Wire Wire Line
	4800 4400 5550 4400
Wire Wire Line
	5550 4500 5550 4400
$Comp
L Device:R_Small R8
U 1 1 5D81101A
P 3100 4800
F 0 "R8" V 2904 4800 50  0000 C CNN
F 1 "10R" V 2995 4800 50  0000 C CNN
F 2 "Resistor_THT:R_Axial_DIN0309_L9.0mm_D3.2mm_P5.08mm_Vertical" H 3100 4800 50  0001 C CNN
F 3 "~" H 3100 4800 50  0001 C CNN
	1    3100 4800
	0    1    1    0   
$EndComp
Wire Wire Line
	2750 4800 3000 4800
Wire Wire Line
	3200 4800 3450 4800
Connection ~ 3450 4800
Text GLabel 5750 4400 2    50   Input ~ 0
4_out
$Comp
L Device:R_Small R11
U 1 1 5D811024
P 3450 4900
F 0 "R11" H 3300 4800 50  0000 L CNN
F 1 "10K" H 3300 4900 50  0000 L CNN
F 2 "Resistor_THT:R_Axial_DIN0309_L9.0mm_D3.2mm_P5.08mm_Vertical" H 3450 4900 50  0001 C CNN
F 3 "~" H 3450 4900 50  0001 C CNN
	1    3450 4900
	1    0    0    -1  
$EndComp
$Comp
L Device:R_Small R14
U 1 1 5D81102A
P 4500 4700
F 0 "R14" H 4350 4550 50  0000 L CNN
F 1 "10K" H 4350 4650 50  0000 L CNN
F 2 "Resistor_THT:R_Axial_DIN0309_L9.0mm_D3.2mm_P5.08mm_Vertical" H 4500 4700 50  0001 C CNN
F 3 "~" H 4500 4700 50  0001 C CNN
	1    4500 4700
	1    0    0    -1  
$EndComp
Wire Wire Line
	3750 4600 4500 4600
Connection ~ 4500 4600
$Comp
L Device:Q_PMOS_GSD Q13
U 1 1 5D8C5600
P 8800 1200
F 0 "Q13" H 9006 1246 50  0000 L CNN
F 1 "PMV33UPE" H 9006 1155 50  0000 L CNN
F 2 "Package_TO_SOT_SMD:SOT-23" H 9000 1300 50  0001 C CNN
F 3 "~" H 8800 1200 50  0001 C CNN
	1    8800 1200
	1    0    0    -1  
$EndComp
Wire Wire Line
	8600 1400 8900 1400
$Comp
L power:VCC #PWR022
U 1 1 5D8C5607
P 8900 1400
F 0 "#PWR022" H 8900 1250 50  0001 C CNN
F 1 "VCC" H 8900 1300 50  0000 C CNN
F 2 "" H 8900 1400 50  0001 C CNN
F 3 "" H 8900 1400 50  0001 C CNN
	1    8900 1400
	1    0    0    -1  
$EndComp
Connection ~ 8900 1400
Text GLabel 6850 1400 0    50   Input ~ 0
5_in
$Comp
L Device:R_Small R33
U 1 1 5D8C560F
P 9650 1200
F 0 "R33" V 9454 1200 50  0000 C CNN
F 1 "1K" V 9545 1200 50  0000 C CNN
F 2 "Resistor_THT:R_Axial_DIN0309_L9.0mm_D3.2mm_P5.08mm_Vertical" H 9650 1200 50  0001 C CNN
F 3 "~" H 9650 1200 50  0001 C CNN
	1    9650 1200
	-1   0    0    1   
$EndComp
$Comp
L power:GND #PWR026
U 1 1 5D8C5615
P 9650 1300
F 0 "#PWR026" H 9650 1050 50  0001 C CNN
F 1 "GND" H 9655 1127 50  0000 C CNN
F 2 "" H 9650 1300 50  0001 C CNN
F 3 "" H 9650 1300 50  0001 C CNN
	1    9650 1300
	1    0    0    -1  
$EndComp
$Comp
L Device:Q_NMOS_GSD Q9
U 1 1 5D8C561B
P 7750 1400
F 0 "Q9" H 7956 1446 50  0000 L CNN
F 1 "PMV20XNE" H 7956 1355 50  0000 L CNN
F 2 "Package_TO_SOT_SMD:SOT-23" H 7950 1500 50  0001 C CNN
F 3 "~" H 7750 1400 50  0001 C CNN
	1    7750 1400
	1    0    0    -1  
$EndComp
$Comp
L power:GND #PWR018
U 1 1 5D8C5621
P 7850 1600
F 0 "#PWR018" H 7850 1350 50  0001 C CNN
F 1 "GND" H 7855 1427 50  0000 C CNN
F 2 "" H 7850 1600 50  0001 C CNN
F 3 "" H 7850 1600 50  0001 C CNN
	1    7850 1600
	1    0    0    -1  
$EndComp
Wire Wire Line
	7550 1600 7850 1600
Connection ~ 7850 1600
Wire Wire Line
	8900 1000 9650 1000
Wire Wire Line
	9650 1100 9650 1000
$Comp
L Device:R_Small R21
U 1 1 5D8C562B
P 7200 1400
F 0 "R21" V 7004 1400 50  0000 C CNN
F 1 "10R" V 7095 1400 50  0000 C CNN
F 2 "Resistor_THT:R_Axial_DIN0309_L9.0mm_D3.2mm_P5.08mm_Vertical" H 7200 1400 50  0001 C CNN
F 3 "~" H 7200 1400 50  0001 C CNN
	1    7200 1400
	0    1    1    0   
$EndComp
Wire Wire Line
	6850 1400 7100 1400
Wire Wire Line
	7300 1400 7550 1400
Connection ~ 7550 1400
Text GLabel 9850 1000 2    50   Input ~ 0
5_out
$Comp
L Device:R_Small R25
U 1 1 5D8C5635
P 7550 1500
F 0 "R25" H 7400 1400 50  0000 L CNN
F 1 "10K" H 7400 1500 50  0000 L CNN
F 2 "Resistor_THT:R_Axial_DIN0309_L9.0mm_D3.2mm_P5.08mm_Vertical" H 7550 1500 50  0001 C CNN
F 3 "~" H 7550 1500 50  0001 C CNN
	1    7550 1500
	1    0    0    -1  
$EndComp
$Comp
L Device:R_Small R29
U 1 1 5D8C563B
P 8600 1300
F 0 "R29" H 8450 1150 50  0000 L CNN
F 1 "10K" H 8450 1250 50  0000 L CNN
F 2 "Resistor_THT:R_Axial_DIN0309_L9.0mm_D3.2mm_P5.08mm_Vertical" H 8600 1300 50  0001 C CNN
F 3 "~" H 8600 1300 50  0001 C CNN
	1    8600 1300
	1    0    0    -1  
$EndComp
Wire Wire Line
	7850 1200 8600 1200
Connection ~ 8600 1200
$Comp
L Device:Q_PMOS_GSD Q14
U 1 1 5D8C5643
P 8800 2300
F 0 "Q14" H 9006 2346 50  0000 L CNN
F 1 "PMV33UPE" H 9006 2255 50  0000 L CNN
F 2 "Package_TO_SOT_SMD:SOT-23" H 9000 2400 50  0001 C CNN
F 3 "~" H 8800 2300 50  0001 C CNN
	1    8800 2300
	1    0    0    -1  
$EndComp
Wire Wire Line
	8600 2500 8900 2500
$Comp
L power:VCC #PWR023
U 1 1 5D8C564A
P 8900 2500
F 0 "#PWR023" H 8900 2350 50  0001 C CNN
F 1 "VCC" H 8900 2400 50  0000 C CNN
F 2 "" H 8900 2500 50  0001 C CNN
F 3 "" H 8900 2500 50  0001 C CNN
	1    8900 2500
	1    0    0    -1  
$EndComp
Connection ~ 8900 2500
Text GLabel 6850 2500 0    50   Input ~ 0
6_in
$Comp
L Device:R_Small R34
U 1 1 5D8C5652
P 9650 2300
F 0 "R34" V 9454 2300 50  0000 C CNN
F 1 "1K" V 9545 2300 50  0000 C CNN
F 2 "Resistor_THT:R_Axial_DIN0309_L9.0mm_D3.2mm_P5.08mm_Vertical" H 9650 2300 50  0001 C CNN
F 3 "~" H 9650 2300 50  0001 C CNN
	1    9650 2300
	-1   0    0    1   
$EndComp
$Comp
L power:GND #PWR027
U 1 1 5D8C5658
P 9650 2400
F 0 "#PWR027" H 9650 2150 50  0001 C CNN
F 1 "GND" H 9655 2227 50  0000 C CNN
F 2 "" H 9650 2400 50  0001 C CNN
F 3 "" H 9650 2400 50  0001 C CNN
	1    9650 2400
	1    0    0    -1  
$EndComp
$Comp
L Device:Q_NMOS_GSD Q10
U 1 1 5D8C565E
P 7750 2500
F 0 "Q10" H 7956 2546 50  0000 L CNN
F 1 "PMV20XNE" H 7956 2455 50  0000 L CNN
F 2 "Package_TO_SOT_SMD:SOT-23" H 7950 2600 50  0001 C CNN
F 3 "~" H 7750 2500 50  0001 C CNN
	1    7750 2500
	1    0    0    -1  
$EndComp
$Comp
L power:GND #PWR019
U 1 1 5D8C5664
P 7850 2700
F 0 "#PWR019" H 7850 2450 50  0001 C CNN
F 1 "GND" H 7855 2527 50  0000 C CNN
F 2 "" H 7850 2700 50  0001 C CNN
F 3 "" H 7850 2700 50  0001 C CNN
	1    7850 2700
	1    0    0    -1  
$EndComp
Wire Wire Line
	7550 2700 7850 2700
Connection ~ 7850 2700
Wire Wire Line
	8900 2100 9650 2100
Wire Wire Line
	9650 2200 9650 2100
$Comp
L Device:R_Small R22
U 1 1 5D8C566E
P 7200 2500
F 0 "R22" V 7004 2500 50  0000 C CNN
F 1 "10R" V 7095 2500 50  0000 C CNN
F 2 "Resistor_THT:R_Axial_DIN0309_L9.0mm_D3.2mm_P5.08mm_Vertical" H 7200 2500 50  0001 C CNN
F 3 "~" H 7200 2500 50  0001 C CNN
	1    7200 2500
	0    1    1    0   
$EndComp
Wire Wire Line
	6850 2500 7100 2500
Wire Wire Line
	7300 2500 7550 2500
Connection ~ 7550 2500
Text GLabel 9850 2100 2    50   Input ~ 0
6_out
$Comp
L Device:R_Small R26
U 1 1 5D8C5678
P 7550 2600
F 0 "R26" H 7400 2500 50  0000 L CNN
F 1 "10K" H 7400 2600 50  0000 L CNN
F 2 "Resistor_THT:R_Axial_DIN0309_L9.0mm_D3.2mm_P5.08mm_Vertical" H 7550 2600 50  0001 C CNN
F 3 "~" H 7550 2600 50  0001 C CNN
	1    7550 2600
	1    0    0    -1  
$EndComp
$Comp
L Device:R_Small R30
U 1 1 5D8C567E
P 8600 2400
F 0 "R30" H 8450 2250 50  0000 L CNN
F 1 "10K" H 8450 2350 50  0000 L CNN
F 2 "Resistor_THT:R_Axial_DIN0309_L9.0mm_D3.2mm_P5.08mm_Vertical" H 8600 2400 50  0001 C CNN
F 3 "~" H 8600 2400 50  0001 C CNN
	1    8600 2400
	1    0    0    -1  
$EndComp
Wire Wire Line
	7850 2300 8600 2300
Connection ~ 8600 2300
$Comp
L Device:Q_PMOS_GSD Q15
U 1 1 5D8C5686
P 8800 3450
F 0 "Q15" H 9006 3496 50  0000 L CNN
F 1 "PMV33UPE" H 9006 3405 50  0000 L CNN
F 2 "Package_TO_SOT_SMD:SOT-23" H 9000 3550 50  0001 C CNN
F 3 "~" H 8800 3450 50  0001 C CNN
	1    8800 3450
	1    0    0    -1  
$EndComp
Wire Wire Line
	8600 3650 8900 3650
$Comp
L power:VCC #PWR024
U 1 1 5D8C568D
P 8900 3650
F 0 "#PWR024" H 8900 3500 50  0001 C CNN
F 1 "VCC" H 8900 3550 50  0000 C CNN
F 2 "" H 8900 3650 50  0001 C CNN
F 3 "" H 8900 3650 50  0001 C CNN
	1    8900 3650
	1    0    0    -1  
$EndComp
Connection ~ 8900 3650
Text GLabel 6850 3650 0    50   Input ~ 0
7_in
$Comp
L Device:R_Small R35
U 1 1 5D8C5695
P 9650 3450
F 0 "R35" V 9454 3450 50  0000 C CNN
F 1 "1K" V 9545 3450 50  0000 C CNN
F 2 "Resistor_THT:R_Axial_DIN0309_L9.0mm_D3.2mm_P5.08mm_Vertical" H 9650 3450 50  0001 C CNN
F 3 "~" H 9650 3450 50  0001 C CNN
	1    9650 3450
	-1   0    0    1   
$EndComp
$Comp
L power:GND #PWR028
U 1 1 5D8C569B
P 9650 3550
F 0 "#PWR028" H 9650 3300 50  0001 C CNN
F 1 "GND" H 9655 3377 50  0000 C CNN
F 2 "" H 9650 3550 50  0001 C CNN
F 3 "" H 9650 3550 50  0001 C CNN
	1    9650 3550
	1    0    0    -1  
$EndComp
$Comp
L Device:Q_NMOS_GSD Q11
U 1 1 5D8C56A1
P 7750 3650
F 0 "Q11" H 7956 3696 50  0000 L CNN
F 1 "PMV20XNE" H 7956 3605 50  0000 L CNN
F 2 "Package_TO_SOT_SMD:SOT-23" H 7950 3750 50  0001 C CNN
F 3 "~" H 7750 3650 50  0001 C CNN
	1    7750 3650
	1    0    0    -1  
$EndComp
$Comp
L power:GND #PWR020
U 1 1 5D8C56A7
P 7850 3850
F 0 "#PWR020" H 7850 3600 50  0001 C CNN
F 1 "GND" H 7855 3677 50  0000 C CNN
F 2 "" H 7850 3850 50  0001 C CNN
F 3 "" H 7850 3850 50  0001 C CNN
	1    7850 3850
	1    0    0    -1  
$EndComp
Wire Wire Line
	7550 3850 7850 3850
Connection ~ 7850 3850
Wire Wire Line
	8900 3250 9650 3250
Wire Wire Line
	9650 3350 9650 3250
$Comp
L Device:R_Small R23
U 1 1 5D8C56B1
P 7200 3650
F 0 "R23" V 7004 3650 50  0000 C CNN
F 1 "10R" V 7095 3650 50  0000 C CNN
F 2 "Resistor_THT:R_Axial_DIN0309_L9.0mm_D3.2mm_P5.08mm_Vertical" H 7200 3650 50  0001 C CNN
F 3 "~" H 7200 3650 50  0001 C CNN
	1    7200 3650
	0    1    1    0   
$EndComp
Wire Wire Line
	6850 3650 7100 3650
Wire Wire Line
	7300 3650 7550 3650
Connection ~ 7550 3650
Text GLabel 9850 3250 2    50   Input ~ 0
7_out
$Comp
L Device:R_Small R27
U 1 1 5D8C56BB
P 7550 3750
F 0 "R27" H 7400 3650 50  0000 L CNN
F 1 "10K" H 7400 3750 50  0000 L CNN
F 2 "Resistor_THT:R_Axial_DIN0309_L9.0mm_D3.2mm_P5.08mm_Vertical" H 7550 3750 50  0001 C CNN
F 3 "~" H 7550 3750 50  0001 C CNN
	1    7550 3750
	1    0    0    -1  
$EndComp
$Comp
L Device:R_Small R31
U 1 1 5D8C56C1
P 8600 3550
F 0 "R31" H 8450 3400 50  0000 L CNN
F 1 "10K" H 8450 3500 50  0000 L CNN
F 2 "Resistor_THT:R_Axial_DIN0309_L9.0mm_D3.2mm_P5.08mm_Vertical" H 8600 3550 50  0001 C CNN
F 3 "~" H 8600 3550 50  0001 C CNN
	1    8600 3550
	1    0    0    -1  
$EndComp
Wire Wire Line
	7850 3450 8600 3450
Connection ~ 8600 3450
$Comp
L Device:Q_PMOS_GSD Q16
U 1 1 5D8C56C9
P 8800 4600
F 0 "Q16" H 9006 4646 50  0000 L CNN
F 1 "PMV33UPE" H 9006 4555 50  0000 L CNN
F 2 "Package_TO_SOT_SMD:SOT-23" H 9000 4700 50  0001 C CNN
F 3 "~" H 8800 4600 50  0001 C CNN
	1    8800 4600
	1    0    0    -1  
$EndComp
Wire Wire Line
	8600 4800 8900 4800
$Comp
L power:VCC #PWR025
U 1 1 5D8C56D0
P 8900 4800
F 0 "#PWR025" H 8900 4650 50  0001 C CNN
F 1 "VCC" H 8900 4700 50  0000 C CNN
F 2 "" H 8900 4800 50  0001 C CNN
F 3 "" H 8900 4800 50  0001 C CNN
	1    8900 4800
	1    0    0    -1  
$EndComp
Connection ~ 8900 4800
Text GLabel 6850 4800 0    50   Input ~ 0
8_in
$Comp
L Device:R_Small R36
U 1 1 5D8C56D8
P 9650 4600
F 0 "R36" V 9454 4600 50  0000 C CNN
F 1 "1K" V 9545 4600 50  0000 C CNN
F 2 "Resistor_THT:R_Axial_DIN0309_L9.0mm_D3.2mm_P5.08mm_Vertical" H 9650 4600 50  0001 C CNN
F 3 "~" H 9650 4600 50  0001 C CNN
	1    9650 4600
	-1   0    0    1   
$EndComp
$Comp
L power:GND #PWR029
U 1 1 5D8C56DE
P 9650 4700
F 0 "#PWR029" H 9650 4450 50  0001 C CNN
F 1 "GND" H 9655 4527 50  0000 C CNN
F 2 "" H 9650 4700 50  0001 C CNN
F 3 "" H 9650 4700 50  0001 C CNN
	1    9650 4700
	1    0    0    -1  
$EndComp
$Comp
L Device:Q_NMOS_GSD Q12
U 1 1 5D8C56E4
P 7750 4800
F 0 "Q12" H 7956 4846 50  0000 L CNN
F 1 "PMV20XNE" H 7956 4755 50  0000 L CNN
F 2 "Package_TO_SOT_SMD:SOT-23" H 7950 4900 50  0001 C CNN
F 3 "~" H 7750 4800 50  0001 C CNN
	1    7750 4800
	1    0    0    -1  
$EndComp
$Comp
L power:GND #PWR021
U 1 1 5D8C56EA
P 7850 5000
F 0 "#PWR021" H 7850 4750 50  0001 C CNN
F 1 "GND" H 7855 4827 50  0000 C CNN
F 2 "" H 7850 5000 50  0001 C CNN
F 3 "" H 7850 5000 50  0001 C CNN
	1    7850 5000
	1    0    0    -1  
$EndComp
Wire Wire Line
	7550 5000 7850 5000
Connection ~ 7850 5000
Wire Wire Line
	8900 4400 9650 4400
Wire Wire Line
	9650 4500 9650 4400
$Comp
L Device:R_Small R24
U 1 1 5D8C56F4
P 7200 4800
F 0 "R24" V 7004 4800 50  0000 C CNN
F 1 "10R" V 7095 4800 50  0000 C CNN
F 2 "Resistor_THT:R_Axial_DIN0309_L9.0mm_D3.2mm_P5.08mm_Vertical" H 7200 4800 50  0001 C CNN
F 3 "~" H 7200 4800 50  0001 C CNN
	1    7200 4800
	0    1    1    0   
$EndComp
Wire Wire Line
	6850 4800 7100 4800
Wire Wire Line
	7300 4800 7550 4800
Connection ~ 7550 4800
Text GLabel 9850 4400 2    50   Input ~ 0
8_out
$Comp
L Device:R_Small R28
U 1 1 5D8C56FE
P 7550 4900
F 0 "R28" H 7400 4800 50  0000 L CNN
F 1 "10K" H 7400 4900 50  0000 L CNN
F 2 "Resistor_THT:R_Axial_DIN0309_L9.0mm_D3.2mm_P5.08mm_Vertical" H 7550 4900 50  0001 C CNN
F 3 "~" H 7550 4900 50  0001 C CNN
	1    7550 4900
	1    0    0    -1  
$EndComp
$Comp
L Device:R_Small R32
U 1 1 5D8C5704
P 8600 4700
F 0 "R32" H 8450 4550 50  0000 L CNN
F 1 "10K" H 8450 4650 50  0000 L CNN
F 2 "Resistor_THT:R_Axial_DIN0309_L9.0mm_D3.2mm_P5.08mm_Vertical" H 8600 4700 50  0001 C CNN
F 3 "~" H 8600 4700 50  0001 C CNN
	1    8600 4700
	1    0    0    -1  
$EndComp
Wire Wire Line
	7850 4600 8600 4600
Connection ~ 8600 4600
Text GLabel 1500 1200 2    50   Input ~ 0
VDD
Text GLabel 1500 1300 2    50   Input ~ 0
GND
Text GLabel 1500 1400 2    50   Input ~ 0
1_in
Text GLabel 1500 1500 2    50   Input ~ 0
2_in
Text GLabel 1500 1600 2    50   Input ~ 0
3_in
Text GLabel 1500 1700 2    50   Input ~ 0
4_in
Text GLabel 1500 1800 2    50   Input ~ 0
5_in
Text GLabel 1500 1900 2    50   Input ~ 0
6_in
Text GLabel 1500 2000 2    50   Input ~ 0
7_in
Text GLabel 1500 2100 2    50   Input ~ 0
8_in
Text GLabel 1500 2300 2    50   Input ~ 0
VCC
Text GLabel 1500 3300 2    50   Input ~ 0
VCC
Text GLabel 1500 3400 2    50   Input ~ 0
1_out
Text GLabel 1500 3500 2    50   Input ~ 0
2_out
Text GLabel 1500 3600 2    50   Input ~ 0
3_out
Text GLabel 1500 3700 2    50   Input ~ 0
4_out
Text GLabel 1500 3800 2    50   Input ~ 0
5_out
Text GLabel 1500 3900 2    50   Input ~ 0
6_out
Text GLabel 1500 4000 2    50   Input ~ 0
7_out
Text GLabel 1500 4100 2    50   Input ~ 0
8_out
Text GLabel 1500 4200 2    50   Input ~ 0
GND
$Comp
L Connector:Conn_01x12_Female J2
U 1 1 5D8EE568
P 1300 1800
F 0 "J2" H 1100 950 50  0000 C CNN
F 1 "Conn_01x12_Female" H 1192 1066 50  0000 C CNN
F 2 "TerminalBlock_Phoenix:TerminalBlock_Phoenix_MKDS-3-12-5.08_1x12_P5.08mm_Horizontal" H 1300 1800 50  0001 C CNN
F 3 "~" H 1300 1800 50  0001 C CNN
	1    1300 1800
	-1   0    0    1   
$EndComp
$Comp
L Connector:Conn_01x10_Female J4
U 1 1 5D90EF6F
P 1300 3800
F 0 "J4" H 1100 3050 50  0000 C CNN
F 1 "Conn_01x10_Female" H 1192 3166 50  0000 C CNN
F 2 "TerminalBlock_Phoenix:TerminalBlock_Phoenix_MKDS-3-10-5.08_1x10_P5.08mm_Horizontal" H 1300 3800 50  0001 C CNN
F 3 "~" H 1300 3800 50  0001 C CNN
	1    1300 3800
	-1   0    0    1   
$EndComp
Text GLabel 1500 2200 2    50   Input ~ 0
GND
$Comp
L Regulator_Linear:AMS1117-5.0 U2
U 1 1 5DA073CF
P 1950 6300
F 0 "U2" H 1950 6542 50  0000 C CNN
F 1 "L780x" H 1950 6451 50  0000 C CNN
F 2 "Package_TO_SOT_THT:TO-220-3_Vertical" H 1950 6500 50  0001 C CNN
F 3 "http://www.advanced-monolithic.com/pdf/ds1117.pdf" H 2050 6050 50  0001 C CNN
	1    1950 6300
	1    0    0    -1  
$EndComp
$Comp
L power:GND #PWR06
U 1 1 5DA073D5
P 1950 6600
F 0 "#PWR06" H 1950 6350 50  0001 C CNN
F 1 "GND" H 1955 6427 50  0000 C CNN
F 2 "" H 1950 6600 50  0001 C CNN
F 3 "" H 1950 6600 50  0001 C CNN
	1    1950 6600
	1    0    0    -1  
$EndComp
$Comp
L power:VCC #PWR07
U 1 1 5DA073DB
P 2250 6300
F 0 "#PWR07" H 2250 6150 50  0001 C CNN
F 1 "VCC" V 2265 6428 50  0000 L CNN
F 2 "" H 2250 6300 50  0001 C CNN
F 3 "" H 2250 6300 50  0001 C CNN
	1    2250 6300
	0    1    1    0   
$EndComp
Wire Wire Line
	1400 6300 1650 6300
$Comp
L Device:Polyfuse F2
U 1 1 5DA07402
P 1250 6300
F 0 "F2" V 1025 6300 50  0000 C CNN
F 1 "TH polyfuse" V 1116 6300 50  0000 C CNN
F 2 "Fuse:Fuse_Littelfuse-LVR100" H 1300 6100 50  0001 L CNN
F 3 "~" H 1250 6300 50  0001 C CNN
	1    1250 6300
	0    1    1    0   
$EndComp
Wire Notes Line
	650  7950 4750 7950
Wire Notes Line
	4750 5350 650  5350
Wire Notes Line
	650  5350 650  7950
Wire Notes Line
	4750 5350 4750 7950
$Comp
L Device:R_Small R5
U 1 1 5DA59D86
P 5650 1000
F 0 "R5" V 5454 1000 50  0000 C CNN
F 1 "0R" V 5545 1000 50  0000 C CNN
F 2 "Resistor_THT:R_Axial_DIN0309_L9.0mm_D3.2mm_P5.08mm_Vertical" H 5650 1000 50  0001 C CNN
F 3 "~" H 5650 1000 50  0001 C CNN
	1    5650 1000
	0    1    1    0   
$EndComp
Connection ~ 5550 1000
$Comp
L Device:R_Small R18
U 1 1 5DA5DF05
P 5650 2100
F 0 "R18" V 5454 2100 50  0000 C CNN
F 1 "0R" V 5545 2100 50  0000 C CNN
F 2 "Resistor_THT:R_Axial_DIN0309_L9.0mm_D3.2mm_P5.08mm_Vertical" H 5650 2100 50  0001 C CNN
F 3 "~" H 5650 2100 50  0001 C CNN
	1    5650 2100
	0    1    1    0   
$EndComp
$Comp
L Device:R_Small R19
U 1 1 5DA6003C
P 5650 3250
F 0 "R19" V 5454 3250 50  0000 C CNN
F 1 "0R" V 5545 3250 50  0000 C CNN
F 2 "Resistor_THT:R_Axial_DIN0309_L9.0mm_D3.2mm_P5.08mm_Vertical" H 5650 3250 50  0001 C CNN
F 3 "~" H 5650 3250 50  0001 C CNN
	1    5650 3250
	0    1    1    0   
$EndComp
$Comp
L Device:R_Small R20
U 1 1 5DA61C0B
P 5650 4400
F 0 "R20" V 5454 4400 50  0000 C CNN
F 1 "0R" V 5545 4400 50  0000 C CNN
F 2 "Resistor_THT:R_Axial_DIN0309_L9.0mm_D3.2mm_P5.08mm_Vertical" H 5650 4400 50  0001 C CNN
F 3 "~" H 5650 4400 50  0001 C CNN
	1    5650 4400
	0    1    1    0   
$EndComp
$Comp
L Device:R_Small R40
U 1 1 5DA638E9
P 9750 4400
F 0 "R40" V 9554 4400 50  0000 C CNN
F 1 "0R" V 9645 4400 50  0000 C CNN
F 2 "Resistor_THT:R_Axial_DIN0309_L9.0mm_D3.2mm_P5.08mm_Vertical" H 9750 4400 50  0001 C CNN
F 3 "~" H 9750 4400 50  0001 C CNN
	1    9750 4400
	0    1    1    0   
$EndComp
$Comp
L Device:R_Small R39
U 1 1 5DA653DB
P 9750 3250
F 0 "R39" V 9554 3250 50  0000 C CNN
F 1 "0R" V 9645 3250 50  0000 C CNN
F 2 "Resistor_THT:R_Axial_DIN0309_L9.0mm_D3.2mm_P5.08mm_Vertical" H 9750 3250 50  0001 C CNN
F 3 "~" H 9750 3250 50  0001 C CNN
	1    9750 3250
	0    1    1    0   
$EndComp
$Comp
L Device:R_Small R38
U 1 1 5DA66E9A
P 9750 2100
F 0 "R38" V 9554 2100 50  0000 C CNN
F 1 "0R" V 9645 2100 50  0000 C CNN
F 2 "Resistor_THT:R_Axial_DIN0309_L9.0mm_D3.2mm_P5.08mm_Vertical" H 9750 2100 50  0001 C CNN
F 3 "~" H 9750 2100 50  0001 C CNN
	1    9750 2100
	0    1    1    0   
$EndComp
$Comp
L Device:R_Small R37
U 1 1 5DA68C91
P 9750 1000
F 0 "R37" V 9554 1000 50  0000 C CNN
F 1 "0R" V 9645 1000 50  0000 C CNN
F 2 "Resistor_THT:R_Axial_DIN0309_L9.0mm_D3.2mm_P5.08mm_Vertical" H 9750 1000 50  0001 C CNN
F 3 "~" H 9750 1000 50  0001 C CNN
	1    9750 1000
	0    1    1    0   
$EndComp
$Comp
L power:VDD #PWR02
U 1 1 5D7D4C20
P 1100 6300
F 0 "#PWR02" H 1100 6150 50  0001 C CNN
F 1 "VDD" V 1118 6427 50  0000 L CNN
F 2 "" H 1100 6300 50  0001 C CNN
F 3 "" H 1100 6300 50  0001 C CNN
	1    1100 6300
	0    -1   -1   0   
$EndComp
$Comp
L power:VDD #PWR03
U 1 1 5D7D6757
P 1100 7300
F 0 "#PWR03" H 1100 7150 50  0001 C CNN
F 1 "VDD" V 1118 7427 50  0000 L CNN
F 2 "" H 1100 7300 50  0001 C CNN
F 3 "" H 1100 7300 50  0001 C CNN
	1    1100 7300
	0    -1   -1   0   
$EndComp
$Comp
L Connector:Conn_01x12_Female J1
U 1 1 5D7DDB89
P 1300 1800
F 0 "J1" H 1250 950 50  0000 C CNN
F 1 "Conn_01x12_Female" H 1192 1066 50  0000 C CNN
F 2 "Connector_PinHeader_2.54mm:PinHeader_1x12_P2.54mm_Vertical" H 1300 1800 50  0001 C CNN
F 3 "~" H 1300 1800 50  0001 C CNN
	1    1300 1800
	-1   0    0    1   
$EndComp
$Comp
L Connector:Conn_01x10_Female J3
U 1 1 5D7E2ABD
P 1300 3800
F 0 "J3" H 1250 3050 50  0000 C CNN
F 1 "Conn_01x10_Female" H 1192 3166 50  0000 C CNN
F 2 "Connector_PinHeader_2.54mm:PinHeader_1x10_P2.54mm_Vertical" H 1300 3800 50  0001 C CNN
F 3 "~" H 1300 3800 50  0001 C CNN
	1    1300 3800
	-1   0    0    1   
$EndComp
Wire Notes Line
	2300 600  6300 600 
Wire Notes Line
	6300 600  6300 1850
Wire Notes Line
	6300 1850 2300 1850
Wire Notes Line
	2300 1850 2300 600 
Text Notes 2350 950  0    50   ~ 0
Populate at least one channel, as needed.\nR1/R5 current limiting resistors may be jupmered if not needed.\nR2-R3 pull up/down resistors values may be adjusted as appropriate.\nSubstitute GSD SOT-23 MOSFETs as appropriate.
Wire Wire Line
	1650 7300 1650 6300
Connection ~ 1650 6300
Wire Wire Line
	2250 7300 2250 6300
Connection ~ 2250 6300
$EndSCHEMATC
