(module Fuse:Fuse_Littelfuse-LVR100 (layer F.Cu) (tedit 5909D78F)
  (descr "Littelfuse, resettable fuse, PTC, polyswitch LVR100, Ih 1A http://www.littelfuse.com/~/media/electronics/datasheets/resettable_ptcs/littelfuse_ptc_lvr_catalog_datasheet.pdf.pdf")
  (tags "LVR100 PTC resettable polyswitch ")
  (fp_text reference F2 (at -2.286 1.397) (layer F.SilkS)
    (effects (font (size 1 1) (thickness 0.15)))
  )
  (fp_text value "TH polyfuse" (at 12.827 -3.81) (layer F.Fab) hide
    (effects (font (size 1 1) (thickness 0.15)))
  )
  (fp_line (start 15.15 2.65) (end -3.75 2.65) (layer F.SilkS) (width 0.12))
  (fp_line (start 15.15 2.65) (end 15.15 -2.65) (layer F.SilkS) (width 0.12))
  (fp_line (start -3.75 -2.65) (end -3.75 2.65) (layer F.SilkS) (width 0.12))
  (fp_line (start -3.75 -2.65) (end 15.15 -2.65) (layer F.SilkS) (width 0.12))
  (fp_line (start 15.3 2.8) (end -3.9 2.8) (layer F.CrtYd) (width 0.05))
  (fp_line (start 15.3 2.8) (end 15.3 -2.8) (layer F.CrtYd) (width 0.05))
  (fp_line (start -3.9 -2.8) (end -3.9 2.8) (layer F.CrtYd) (width 0.05))
  (fp_line (start -3.9 -2.8) (end 15.3 -2.8) (layer F.CrtYd) (width 0.05))
  (fp_line (start -3.65 -2.55) (end -3.65 2.55) (layer F.Fab) (width 0.1))
  (fp_line (start 15.05 -2.55) (end -3.65 -2.55) (layer F.Fab) (width 0.1))
  (fp_line (start 15.05 2.55) (end 15.05 -2.55) (layer F.Fab) (width 0.1))
  (fp_line (start -3.65 2.55) (end 15.05 2.55) (layer F.Fab) (width 0.1))
  (fp_text user %R (at 6 0) (layer F.Fab)
    (effects (font (size 1 1) (thickness 0.15)))
  )
  (pad 2 thru_hole circle (at 11.4 0) (size 2 2) (drill 1) (layers *.Cu *.Mask))
  (pad 1 thru_hole circle (at 0 0) (size 2 2) (drill 1) (layers *.Cu *.Mask))
  (model ${KISYS3DMOD}/Fuse.3dshapes/Fuse_Littelfuse-LVR100.wrl
    (at (xyz 0 0 0))
    (scale (xyz 1 1 1))
    (rotate (xyz 0 0 0))
  )
)
